{
  "type": "service_account",
  "project_id": "nest-school",
  "private_key_id": "b4bbe24d4b1e3e13455dc3e849b18e84c5be7789",
  "private_key": "-----BEGIN PRIVATE KEY-----\nMIIEvAIBADANBgkqhkiG9w0BAQEFAASCBKYwggSiAgEAAoIBAQCkQNJNidMdYEd1\nAtUuS2W38grM0xXmnlT4BliWjA2PppLnC8ERYCkIWBZSqG95hk5XJQyUcnKDXA+f\nl1xzPXrUO6VFcS2eTLLF1a+iPOxpucie6S3TFbRyq5pg1VOioFjGkO8L+kM1DstK\nPKwe2b/xoQbY8/o2XnkWWiRqfGwxemAkPH6J3Ap+awlKM6JFo4ZdQlyzqbpJka6M\n/tasJuS4dCux3rdE9KFmhhw4ApkxcqG8lylwREpr3epM6MAU2gEh4snOnjUn3//9\nhoq2GkTQCEKYJLT5RuZX/bIVHHVyWCh7oG2vcz6klGdR4+8/tejp7uEM94Up602+\nf9/tkXVbAgMBAAECggEAA4kW/cRHCbgrfEFLWsEUt247p/JYjlY/eKHqVj3oLNIR\nEhgWrSESFl6PBx3JCHyeQxHxFguV8MM9Mto3NePPjlyaT3GtjF1qRl01zUWHxol7\n4AUfj2Oa4Weq3bAPKiOkGuITwyuSjBnSwQ5Sm3dkbPcNBq55vEyG9Aw3Vx4b1hTG\nFvzQPRX1Lnr3VTNSL01jMtPMW0yQ0nX1QIfc3hIIU8hQUiDmSdRhVKIN83It55vS\nTInqUxWhZ5a5j14tqc8jNDjqYeuydrKWQ+p9F9cwVz71NVsKqiO6Kh2A3j0scx/i\n38t8WwXdD2/kDBJwH/llM4fZw1NY79KgHcw9iVr2wQKBgQDWG39HjAH987zvSaU2\nyEboGBiDo6X+DyUETFPIQtbO4TTEbFI7nrgRawdgYmZ0N0UpOKo5CMa7tWsQ77Z3\nG1I7K0gE5/+oh4QAwTqXMI0AWmHk0WSld3aLx7EuQHv9Jzv4nudI8tXBy4NkAnV6\nX1GKwH5nsh1aU5EH5OnWXXAFZwKBgQDEZCjJwyOt2oCGX2jI5XwamgiazJSmoMFn\nvoe3rb8yTi24nOtCDNRtcHnoz0uRDbSgIePzXk3NKR3z162+Fqm05l8Dx/8GJIYq\nk8BlTpMKq/o+/WOgOve9MYIshxG0uxRSw19YycM4IrGHrCMrXXRdwHoo7gILSlVx\nz5nJounD7QKBgB3GcSroA5bngIzedwVpUMMSJsaXyYvNW15/pt8gvHLEyuvODJmR\n9xMlCT+UL59V2F5lLPcFi22rSxpt27gwqnzkBf34rYsoXWkldhp0fAdiil6h6BdC\nx8+kk7VU7mlEPYjTwGJasvNidAFCfkfoXZSoNGwDTyWynWa1pPdUwzFdAoGAbNji\nbmj0RnA7Gb6Zkfb24LuMl1dZ8Dxa1UgZamkm9he0aYS3M0VvGzTirHDv/fYtrS77\nazBSSKpISpS4XAmth3DDKpJXOy1VGxYG5V82SgzlRrIj3HOySS6+ajV2T8f8TJ6y\nIsC4rU01Pe/fEjLawvdh/XtksKNDVi/smX/stkUCgYADifAUu6vKlXhNGHWffX4C\nQTluBF2ksNSCnyT9VeXaHMWILeQeQqpMS8uJTPoh2RzX9khR1PEmtf0pKH4JRstw\nkD716M++KKY9i+U2QWwn6yj3FifxhIiqy5dfLtsjrFbku8YrFVjgFTsL8a6ndxP6\njeOyidxrBbiLXIKB7UwCdA==\n-----END PRIVATE KEY-----\n",
  "client_email": "firebase-adminsdk-l50iz@nest-school.iam.gserviceaccount.com",
  "client_id": "115012492651561767484",
  "auth_uri": "https://accounts.google.com/o/oauth2/auth",
  "token_uri": "https://oauth2.googleapis.com/token",
  "auth_provider_x509_cert_url": "https://www.googleapis.com/oauth2/v1/certs",
  "client_x509_cert_url": "https://www.googleapis.com/robot/v1/metadata/x509/firebase-adminsdk-l50iz%40nest-school.iam.gserviceaccount.com"
}
